<svg width="32" height="32" viewBox="0 0 32 32" fill="none" xmlns="http://www.w3.org/2000/svg">
<g clip-path="url(#clip0_38_95)">
<path d="M31.9965 7.41285L31.787 5.5941C31.7755 5.49521 31.7365 5.40155 31.6742 5.32385C31.612 5.24614 31.5292 5.18754 31.4352 5.15476C31.3412 5.12198 31.2398 5.11634 31.1428 5.1385C31.0457 5.16066 30.9569 5.20971 30.8865 5.28004L29.0215 7.14135L27.1913 6.88366L26.9331 5.05697L28.7981 3.1956C28.8684 3.12532 28.9175 3.03662 28.9397 2.93969C28.9619 2.84275 28.9562 2.74153 28.9234 2.64765C28.8906 2.55378 28.832 2.47107 28.7543 2.40903C28.6766 2.347 28.583 2.30816 28.4841 2.29697L26.6598 2.08747C26.5808 2.07815 26.5006 2.08694 26.4255 2.11318C26.3503 2.13941 26.2822 2.18241 26.2261 2.23891L23.8791 4.58122C23.8282 4.63222 23.7882 4.69309 23.7615 4.7601C23.7349 4.8271 23.7223 4.89884 23.7243 4.97091L23.7838 6.93697L23.6719 7.0486L23.6706 7.04972L17.4437 13.2648L14.3455 16.3568L14.3449 16.3575L14.2943 16.408L12.325 16.3487C12.2528 16.3467 12.1809 16.3593 12.1137 16.3859C12.0465 16.4124 11.9854 16.4523 11.934 16.5031L9.58896 18.8437C9.53188 18.8999 9.48839 18.9683 9.46181 19.0439C9.43523 19.1194 9.42626 19.2 9.43558 19.2795L9.64514 21.0983C9.65657 21.1972 9.69563 21.2908 9.75785 21.3686C9.82006 21.4463 9.90291 21.5049 9.99691 21.5377C10.0909 21.5705 10.1922 21.5761 10.2893 21.5539C10.3863 21.5318 10.4752 21.4827 10.5456 21.4124L12.4106 19.551L14.2408 19.8087L14.499 21.6353L12.6341 23.4967C12.5637 23.567 12.5146 23.6557 12.4924 23.7526C12.4702 23.8496 12.4758 23.9508 12.5086 24.0447C12.5414 24.1386 12.6001 24.2213 12.6778 24.2833C12.7555 24.3454 12.8492 24.3842 12.948 24.3953L14.7723 24.6047C14.7923 24.607 14.8125 24.6082 14.8326 24.6082C14.902 24.6083 14.9708 24.5947 15.0348 24.5681C15.0989 24.5415 15.1571 24.5025 15.206 24.4533L17.553 22.111C17.6039 22.06 17.6439 21.9992 17.6705 21.9322C17.6972 21.8652 17.7098 21.7934 17.7078 21.7213L17.6483 19.7553L17.7602 19.6437L17.7615 19.6425L23.9885 13.4275L27.0866 10.3355L27.0872 10.3348L27.1378 10.2843L29.1072 10.3437C29.1795 10.3461 29.2515 10.3337 29.3187 10.3071C29.3859 10.2805 29.447 10.2404 29.4981 10.1892L31.8431 7.8486C31.9002 7.79245 31.9437 7.724 31.9703 7.64848C31.9969 7.57296 32.0058 7.49237 31.9965 7.41285V7.41285ZM28.934 9.33785L26.9646 9.27847C26.8924 9.27639 26.8205 9.28902 26.7533 9.31558C26.6861 9.34213 26.625 9.38208 26.5737 9.43297L26.3782 9.6281L16.7937 19.1943C16.7434 19.2452 16.7039 19.3058 16.6776 19.3724C16.6513 19.439 16.6388 19.5102 16.6408 19.5818L16.7003 21.5478L14.6591 23.585L14.0345 23.5133L15.3744 22.1758C15.4323 22.1179 15.476 22.0473 15.502 21.9697C15.528 21.892 15.5357 21.8094 15.5244 21.7283L15.1835 19.3173C15.1671 19.2038 15.1143 19.0987 15.0332 19.0177C14.9521 18.9367 14.847 18.8841 14.7335 18.8677L12.3196 18.5279C12.2381 18.5162 12.1551 18.5237 12.077 18.5496C11.9989 18.5755 11.9279 18.6191 11.8696 18.6772L10.5297 20.0147L10.4579 19.3912L12.499 17.3537L14.4685 17.4131C14.5407 17.4156 14.6127 17.4032 14.68 17.3766C14.7472 17.35 14.8083 17.3098 14.8593 17.2586L15.0548 17.0635L24.6366 7.49997C24.6876 7.44898 24.7276 7.38813 24.7542 7.32113C24.7809 7.25414 24.7935 7.18241 24.7915 7.11035L24.732 5.14429L26.7732 3.1071L27.3978 3.17885L26.0579 4.51635C26 4.57425 25.9563 4.6448 25.9303 4.72246C25.9042 4.80011 25.8966 4.88274 25.9079 4.96385L26.2488 7.37497C26.2653 7.48843 26.318 7.59352 26.3991 7.67455C26.4802 7.75557 26.5854 7.80819 26.6988 7.82454L29.1128 8.16435C29.1942 8.17594 29.2772 8.1685 29.3553 8.1426C29.4334 8.11671 29.5044 8.07306 29.5628 8.0151L30.9026 6.6776L30.9745 7.30104L28.934 9.33785Z" fill="#1b91ad"/>
<path d="M23.4971 9.86345L17.2264 16.1219C17.1327 16.2158 17.0801 16.3432 17.0802 16.476C17.0803 16.6087 17.1332 16.736 17.2272 16.8297C17.3211 16.9235 17.4485 16.9761 17.5812 16.976C17.714 16.9758 17.8412 16.923 17.935 16.829L24.2056 10.5706C24.2521 10.5241 24.2889 10.4688 24.314 10.4081C24.3391 10.3473 24.3519 10.2822 24.3519 10.2165C24.3518 10.1508 24.3388 10.0857 24.3136 10.025C24.2884 9.9643 24.2514 9.90916 24.2049 9.86273C24.1584 9.8163 24.1032 9.77949 24.0424 9.7544C23.9817 9.7293 23.9166 9.71643 23.8508 9.71649C23.7851 9.71656 23.72 9.72957 23.6593 9.75479C23.5986 9.78 23.5435 9.81693 23.4971 9.86345Z" fill="#1b91ad"/>
<path d="M21.6847 18.0125C21.619 18.0124 21.5539 18.0253 21.4932 18.0504C21.4324 18.0755 21.3772 18.1123 21.3307 18.1588C21.2842 18.2052 21.2472 18.2603 21.222 18.321C21.1968 18.3817 21.1838 18.4468 21.1837 18.5125V28.5346C21.1827 29.011 20.9928 29.4675 20.6556 29.804C20.3185 30.1405 19.8616 30.3296 19.3852 30.3296H7.99105C7.51467 30.3296 7.05777 30.1405 6.72058 29.804C6.3834 29.4675 6.19348 29.011 6.19249 28.5346V18.9319C6.19102 18.8 6.13759 18.674 6.0438 18.5812C5.95001 18.4885 5.82342 18.4365 5.69152 18.4365C5.55962 18.4365 5.43303 18.4885 5.33924 18.5812C5.24545 18.674 5.19202 18.8 5.19055 18.9319V28.5346C5.19211 29.2763 5.48783 29.9872 6.01285 30.5112C6.53786 31.0352 7.24929 31.3295 7.99105 31.3296H19.3852C20.1269 31.3295 20.8384 31.0352 21.3634 30.5112C21.8884 29.9872 22.1841 29.2763 22.1857 28.5346V18.5125C22.1855 18.3798 22.1327 18.2525 22.0388 18.1588C21.9448 18.065 21.8175 18.0124 21.6847 18.0125V18.0125Z" fill="#1b91ad"/>
<path d="M5.69149 6.36179C5.75722 6.36185 5.82231 6.34897 5.88306 6.32388C5.94381 6.29879 5.99902 6.26198 6.04554 6.21555C6.09206 6.16912 6.12899 6.11398 6.1542 6.05328C6.17941 5.99258 6.19242 5.92751 6.19249 5.86179V3.46541C6.19348 2.98903 6.3834 2.5325 6.72058 2.19597C7.05777 1.85945 7.51467 1.67041 7.99105 1.67035H19.3852C19.8616 1.67041 20.3185 1.85945 20.6556 2.19597C20.9928 2.5325 21.1827 2.98903 21.1837 3.46541V5.4421C21.1852 5.574 21.2386 5.69999 21.3324 5.79274C21.4262 5.88549 21.5528 5.9375 21.6847 5.9375C21.8166 5.9375 21.9432 5.88549 22.037 5.79274C22.1308 5.69999 22.1842 5.574 22.1857 5.4421V3.46541C22.1841 2.72366 21.8884 2.01281 21.3634 1.48882C20.8384 0.964828 20.1269 0.67048 19.3852 0.670349H7.99105C7.24929 0.670463 6.53786 0.964806 6.01285 1.4888C5.48783 2.0128 5.19211 2.72365 5.19055 3.46541V5.86179C5.19068 5.99452 5.24353 6.12176 5.33748 6.21553C5.43142 6.30929 5.55876 6.3619 5.69149 6.36179V6.36179Z" fill="#1b91ad"/>
<path d="M14.7654 29.3134C14.898 29.3134 15.0252 29.2607 15.119 29.167C15.2127 29.0732 15.2654 28.946 15.2654 28.8134C15.2654 28.6808 15.2127 28.5536 15.119 28.4599C15.0252 28.3661 14.898 28.3134 14.7654 28.3134H13.3315C13.1989 28.3134 13.0718 28.3661 12.978 28.4599C12.8842 28.5536 12.8315 28.6808 12.8315 28.8134C12.8315 28.946 12.8842 29.0732 12.978 29.167C13.0718 29.2607 13.1989 29.3134 13.3315 29.3134H14.7654Z" fill="#1b91ad"/>
<path d="M11.0957 2.94421C10.9631 2.94421 10.8359 2.99689 10.7422 3.09066C10.6484 3.18443 10.5957 3.31161 10.5957 3.44421C10.5957 3.57682 10.6484 3.704 10.7422 3.79777C10.8359 3.89154 10.9631 3.94421 11.0957 3.94421H17.0012C17.1338 3.94421 17.261 3.89154 17.3548 3.79777C17.4485 3.704 17.5012 3.57682 17.5012 3.44421C17.5012 3.31161 17.4485 3.18443 17.3548 3.09066C17.261 2.99689 17.1338 2.94421 17.0012 2.94421H11.0957Z" fill="#1b91ad"/>
<path d="M6.0282 16.9401L6.74838 17.7362C6.84566 17.844 6.97252 17.9207 7.11315 17.9569C7.25377 17.9931 7.40193 17.987 7.53913 17.9395C7.75739 17.8641 7.97103 17.7759 8.17895 17.6754C8.30962 17.6123 8.41877 17.512 8.49268 17.3872C8.5666 17.2623 8.602 17.1184 8.59445 16.9735L8.5397 15.9022C8.64726 15.8127 8.75138 15.7179 8.85045 15.6191C8.94951 15.5202 9.04457 15.4162 9.1342 15.3089L10.2075 15.3636C10.3526 15.3712 10.4967 15.3359 10.6218 15.2621C10.7469 15.1882 10.8475 15.0791 10.9109 14.9484C11.0115 14.7411 11.0998 14.5281 11.1754 14.3104C11.223 14.1734 11.2291 14.0254 11.1929 13.885C11.1567 13.7446 11.0798 13.618 10.9719 13.5211L10.174 12.8024C10.1996 12.5234 10.1996 12.2427 10.174 11.9638L10.9718 11.2451C11.0797 11.1482 11.1566 11.0217 11.1929 10.8813C11.2291 10.7409 11.223 10.5929 11.1754 10.456C11.0998 10.2381 11.0115 10.0249 10.9108 9.81743C10.8476 9.68663 10.7471 9.57745 10.6219 9.50365C10.4968 9.42985 10.3526 9.39472 10.2075 9.40268L9.1342 9.45737C9.04457 9.34999 8.94945 9.24606 8.85045 9.14718C8.75145 9.04831 8.64726 8.95343 8.5397 8.86399L8.59445 7.79274C8.60199 7.64778 8.56655 7.50381 8.49256 7.37892C8.41857 7.25402 8.30934 7.15377 8.17857 7.09074C7.97083 6.99029 7.75736 6.90216 7.53926 6.82681C7.40209 6.77921 7.25394 6.77309 7.11332 6.8092C6.97269 6.84532 6.84583 6.92207 6.74857 7.02987L6.0282 7.82593C5.74871 7.80049 5.46749 7.80049 5.18801 7.82593L4.4677 7.02968C4.37041 6.92195 4.24356 6.84523 4.10296 6.8091C3.96237 6.77297 3.81425 6.77902 3.67707 6.82649C3.45887 6.90192 3.24529 6.99012 3.03745 7.09062C2.90676 7.15369 2.79761 7.25394 2.72368 7.37881C2.64975 7.50367 2.61434 7.64758 2.62188 7.79249L2.6767 8.86374C2.56913 8.95318 2.46495 9.04812 2.36588 9.14693C2.26682 9.24574 2.17213 9.34974 2.08213 9.45712L1.00882 9.40243C0.863771 9.39473 0.719673 9.43 0.594576 9.50382C0.46948 9.57764 0.368947 9.68673 0.305571 9.81743C0.204791 10.0247 0.116386 10.2378 0.0408211 10.4556C-0.00680021 10.5926 -0.0128904 10.7406 0.0233155 10.881C0.0595214 11.0214 0.136409 11.148 0.244321 11.2448L1.04213 11.9636C1.01657 12.2425 1.01657 12.5232 1.04213 12.8021L0.244321 13.5211C0.136424 13.618 0.0595417 13.7445 0.0233259 13.8849C-0.0128899 14.0253 -0.00682519 14.1733 0.0407586 14.3102C0.116282 14.528 0.204624 14.7411 0.305321 14.9485C0.368731 15.0792 0.469278 15.1883 0.594378 15.2621C0.719479 15.3359 0.863575 15.3712 1.00863 15.3636L2.08195 15.3089C2.17163 15.4162 2.2667 15.5202 2.3657 15.6191C2.4647 15.7179 2.56895 15.8128 2.67651 15.9022L2.6217 16.9735C2.61414 17.1184 2.64957 17.2624 2.72354 17.3873C2.7975 17.5122 2.90671 17.6124 3.03745 17.6755C3.24518 17.776 3.45865 17.8641 3.67676 17.9394C3.81395 17.987 3.96209 17.993 4.10271 17.9569C4.24333 17.9208 4.37021 17.8441 4.46751 17.7363L5.18782 16.9401C5.46737 16.9655 5.74865 16.9655 6.0282 16.9401V16.9401ZM5.17195 15.9327C5.0544 15.9184 4.93515 15.9326 4.82422 15.974C4.71328 16.0154 4.61391 16.0828 4.53445 16.1706L3.84251 16.9352C3.77168 16.9078 3.7013 16.8786 3.63138 16.8477L3.68395 15.8196C3.68995 15.7015 3.66746 15.5837 3.61837 15.4761C3.56928 15.3685 3.49503 15.2743 3.40188 15.2014C3.17189 15.0214 2.96441 14.8143 2.78395 14.5847C2.71077 14.4916 2.61633 14.4175 2.50857 14.3685C2.40081 14.3195 2.28286 14.297 2.16463 14.3031L1.13438 14.3556C1.10363 14.2861 1.07447 14.2158 1.04688 14.1448L1.81301 13.4546C1.90079 13.3754 1.96826 13.2764 2.00976 13.1657C2.05125 13.0551 2.06555 12.9361 2.05145 12.8187C2.01607 12.5295 2.01607 12.237 2.05145 11.9478C2.06566 11.8304 2.05142 11.7113 2.00994 11.6005C1.96845 11.4897 1.90093 11.3906 1.81307 11.3114L1.04707 10.6209C1.07445 10.55 1.10361 10.4798 1.13457 10.4101L2.16463 10.4626C2.28284 10.4686 2.40077 10.4462 2.50855 10.3973C2.61632 10.3484 2.7108 10.2743 2.78407 10.1814C2.96454 9.95174 3.17201 9.74468 3.40201 9.56468C3.49515 9.49182 3.5694 9.39762 3.6185 9.29004C3.6676 9.18247 3.69011 9.06466 3.68413 8.94656L3.6312 7.91799C3.7009 7.88733 3.77128 7.85816 3.84232 7.83049L4.53376 8.59493C4.61322 8.68272 4.71259 8.75017 4.82352 8.7916C4.93445 8.83304 5.0537 8.84725 5.17126 8.83306C5.46108 8.79774 5.75412 8.79774 6.04395 8.83306C6.16149 8.84723 6.28072 8.83303 6.39164 8.79163C6.50256 8.75023 6.60194 8.68284 6.68145 8.59512L7.37307 7.83056C7.4439 7.85793 7.51428 7.88699 7.5842 7.91774L7.53157 8.94581C7.52558 9.06393 7.54808 9.18176 7.59718 9.28936C7.64628 9.39697 7.72054 9.49118 7.8137 9.56406C8.04369 9.74403 8.25115 9.95109 8.43157 10.1807C8.50464 10.2739 8.59905 10.3482 8.70684 10.3972C8.81463 10.4462 8.93263 10.4685 9.05088 10.4624L10.0812 10.4099C10.1119 10.4794 10.1411 10.5496 10.1687 10.6206L9.40282 11.3107C9.31487 11.3899 9.24728 11.489 9.20575 11.5998C9.16423 11.7107 9.15 11.8298 9.16426 11.9473C9.19957 12.2365 9.19957 12.529 9.16426 12.8182C9.15001 12.9357 9.16423 13.0548 9.20572 13.1656C9.2472 13.2764 9.31475 13.3755 9.40263 13.4547L10.1687 14.1449C10.1413 14.2157 10.1121 14.286 10.0812 14.3556L9.05107 14.3031C8.93286 14.2971 8.81491 14.3194 8.70713 14.3684C8.59935 14.4173 8.50487 14.4914 8.43163 14.5844C8.25121 14.814 8.04376 15.0211 7.81376 15.2011C7.72061 15.2739 7.64635 15.3681 7.59724 15.4757C7.54812 15.5833 7.5256 15.7011 7.53157 15.8192L7.5842 16.8474C7.51449 16.8781 7.44411 16.9072 7.37307 16.9346L6.68145 16.1699C6.60197 16.0822 6.50259 16.0148 6.39166 15.9734C6.28073 15.932 6.16148 15.9178 6.04395 15.9321C5.75429 15.9676 5.4614 15.9678 5.1717 15.9327H5.17195Z" fill="#1b91ad"/>
<path d="M7.80087 14.5713C8.08832 14.284 8.31635 13.9429 8.47193 13.5674C8.62751 13.1919 8.70758 12.7895 8.70758 12.383C8.70758 11.9766 8.62751 11.5741 8.47193 11.1987C8.31635 10.8232 8.08832 10.482 7.80087 10.1947C7.36814 9.76235 6.81694 9.468 6.21694 9.34886C5.61695 9.22971 4.9951 9.29113 4.43 9.52535C3.86491 9.75956 3.38194 10.1561 3.04215 10.6647C2.70236 11.1734 2.521 11.7713 2.521 12.3831C2.521 12.9948 2.70236 13.5927 3.04215 14.1014C3.38194 14.61 3.86491 15.0065 4.43 15.2408C4.9951 15.475 5.61695 15.5364 6.21694 15.4172C6.81694 15.2981 7.36814 15.0037 7.80087 14.5714V14.5713ZM4.124 10.9018C4.41708 10.6081 4.7907 10.408 5.19757 10.3267C5.60444 10.2455 6.02626 10.2868 6.40966 10.4454C6.79305 10.6039 7.12078 10.8727 7.35137 11.2176C7.58196 11.5625 7.70505 11.9681 7.70505 12.383C7.70505 12.7979 7.58196 13.2035 7.35137 13.5484C7.12078 13.8933 6.79305 14.1621 6.40966 14.3207C6.02626 14.4793 5.60444 14.5205 5.19757 14.4393C4.7907 14.3581 4.41708 14.1579 4.124 13.8643C3.92943 13.6698 3.77509 13.4389 3.66979 13.1847C3.56449 12.9305 3.51029 12.6581 3.51029 12.383C3.51029 12.1079 3.56449 11.8355 3.66979 11.5813C3.77509 11.3272 3.92943 11.0963 4.124 10.9018Z" fill="#1b91ad"/>
</g>
<defs>
<clipPath id="clip0_38_95">
<rect width="32" height="32" fill="white"/>
</clipPath>
</defs>
</svg>
