<svg width="32" height="32" viewBox="0 0 32 32" fill="none" xmlns="http://www.w3.org/2000/svg">
<g clip-path="url(#clip0_38_142)">
<path d="M30.4 0H1.6C1.17565 0 0.768687 0.168571 0.468629 0.468629C0.168571 0.768687 0 1.17565 0 1.6L0 25.0667C0 25.491 0.168571 25.898 0.468629 26.198C0.768687 26.4981 1.17565 26.6667 1.6 26.6667H12.2133C11.8992 28.3883 10.1221 28.7904 10.0267 28.8107C9.48113 28.8372 8.96663 29.0723 8.58946 29.4673C8.21229 29.8623 8.00127 30.3872 8 30.9333C8 31.2162 8.11238 31.4875 8.31242 31.6876C8.51246 31.8876 8.78377 32 9.06667 32H22.9333C23.2162 32 23.4875 31.8876 23.6876 31.6876C23.8876 31.4875 24 31.2162 24 30.9333C23.998 30.3874 23.7867 29.863 23.4097 29.4681C23.0327 29.0733 22.5186 28.838 21.9733 28.8107V28.8107C21.8896 28.7936 20.0992 28.4091 19.7867 26.6667H30.4C30.8243 26.6667 31.2313 26.4981 31.5314 26.198C31.8314 25.898 32 25.491 32 25.0667V1.6C32 1.17565 31.8314 0.768687 31.5314 0.468629C31.2313 0.168571 30.8243 0 30.4 0V0ZM1.6 1.06667H30.4C30.5415 1.06667 30.6771 1.12286 30.7771 1.22288C30.8771 1.3229 30.9333 1.45855 30.9333 1.6V22.4H1.06667V1.6C1.06667 1.45855 1.12286 1.3229 1.22288 1.22288C1.3229 1.12286 1.45855 1.06667 1.6 1.06667V1.06667ZM22.9333 30.9333H9.06667C9.06667 30.6504 9.17905 30.3791 9.37909 30.1791C9.57913 29.979 9.85044 29.8667 10.1333 29.8667H21.8667C22.1493 29.8674 22.4203 29.98 22.6201 30.1799C22.82 30.3798 22.9326 30.6507 22.9333 30.9333ZM19.7771 28.8H12.2219C12.8176 28.2358 13.1975 27.4812 13.296 26.6667H18.704C18.8025 27.4812 19.1824 28.2358 19.7781 28.8H19.7771ZM30.4 25.6H1.6C1.45855 25.6 1.3229 25.5438 1.22288 25.4438C1.12286 25.3438 1.06667 25.2081 1.06667 25.0667V23.4667H30.9333V25.0667C30.9333 25.2081 30.8771 25.3438 30.7771 25.4438C30.6771 25.5438 30.5415 25.6 30.4 25.6Z" fill="#1b91ad"/>
<path d="M3.19997 21.3334H28.8C29.0829 21.3334 29.3542 21.221 29.5542 21.0209C29.7543 20.8209 29.8666 20.5496 29.8666 20.2667V3.20003C29.8666 2.91713 29.7543 2.64582 29.5542 2.44578C29.3542 2.24574 29.0829 2.13336 28.8 2.13336H3.19997C2.91707 2.13336 2.64576 2.24574 2.44572 2.44578C2.24568 2.64582 2.1333 2.91713 2.1333 3.20003V20.2667C2.1333 20.5496 2.24568 20.8209 2.44572 21.0209C2.64576 21.221 2.91707 21.3334 3.19997 21.3334ZM9.72477 16.5179L9.0693 14.959C9.23303 14.7606 9.41117 14.5702 9.5845 14.3926C9.77141 14.2037 9.97254 14.0295 10.1861 13.8715L11.7178 14.5248C11.7955 14.558 11.88 14.5723 11.9643 14.5665C12.0486 14.5606 12.1303 14.5348 12.2026 14.4912C12.8311 14.1116 13.5133 13.8291 14.2261 13.6534C14.3084 13.6331 14.3846 13.5934 14.4485 13.5378C14.5124 13.4821 14.5621 13.4121 14.5936 13.3334L15.2298 11.7686C15.7483 11.7103 16.272 11.7169 16.7888 11.7883L17.4064 13.3334C17.4378 13.4121 17.4875 13.4821 17.5514 13.5378C17.6153 13.5934 17.6916 13.6331 17.7738 13.6534C18.4868 13.8296 19.169 14.1126 19.7973 14.4928C19.8697 14.5364 19.9514 14.5622 20.0357 14.5681C20.1199 14.5739 20.2044 14.5596 20.2821 14.5264L21.841 13.871C22.0394 14.0352 22.2298 14.2128 22.4074 14.3862C22.5964 14.5729 22.7706 14.7741 22.9285 14.9878L22.2752 16.5195C22.242 16.5972 22.2277 16.6817 22.2335 16.7659C22.2394 16.8502 22.2652 16.9319 22.3088 17.0043C22.6882 17.6322 22.9707 18.3139 23.1466 19.0262C23.1669 19.1084 23.2066 19.1847 23.2622 19.2486C23.3179 19.3125 23.3879 19.3622 23.4666 19.3936L25.0314 20.0299C25.0389 20.1051 25.0426 20.1867 25.048 20.2667H22.3728C22.2417 18.6664 21.5135 17.174 20.3327 16.086C19.1519 14.998 17.6051 14.3939 15.9994 14.3939C14.3938 14.3939 12.8469 14.998 11.6662 16.086C10.4854 17.174 9.75715 18.6664 9.6261 20.2667H6.95943C6.96743 20.1803 6.97383 20.0939 6.98823 20.0102L8.5333 19.3936C8.612 19.3622 8.68207 19.3125 8.73772 19.2486C8.79337 19.1847 8.83299 19.1084 8.8533 19.0262C9.02957 18.3132 9.31259 17.631 9.69277 17.0027C9.73611 16.9302 9.76162 16.8484 9.76718 16.7642C9.77274 16.6799 9.75821 16.5955 9.72477 16.5179V16.5179ZM21.3061 20.2667H10.6928C10.8248 18.951 11.4409 17.7313 12.4215 16.8443C13.402 15.9572 14.6772 15.466 15.9994 15.466C17.3217 15.466 18.5968 15.9572 19.5774 16.8443C20.558 17.7313 21.174 18.951 21.3061 20.2667V20.2667ZM3.19997 3.20003H28.8V20.2667H26.1184C26.112 20.151 26.105 20.0368 26.0949 19.9302C26.0745 19.7304 25.9999 19.5401 25.8791 19.3797C25.7583 19.2193 25.5959 19.095 25.4096 19.0203L24.113 18.5024C23.9346 17.8705 23.6822 17.2618 23.361 16.6891L23.9093 15.4043C23.9913 15.2207 24.02 15.0178 23.9923 14.8186C23.9646 14.6195 23.8815 14.4321 23.7525 14.2779C23.5888 14.079 23.4032 13.8758 23.1616 13.6288C22.9226 13.3952 22.7194 13.2096 22.5269 13.0512C22.3724 12.9209 22.1842 12.8367 21.9841 12.8084C21.7839 12.7801 21.5798 12.8088 21.3952 12.8912L20.1093 13.44C19.5366 13.1188 18.9279 12.8664 18.296 12.688L17.7776 11.3899C17.7032 11.2047 17.5798 11.0433 17.4207 10.9229C17.2615 10.8025 17.0725 10.7278 16.8741 10.7067C16.2934 10.6555 15.7092 10.6555 15.1285 10.7067C14.9288 10.7271 14.7384 10.8017 14.578 10.9225C14.4177 11.0433 14.2934 11.2057 14.2186 11.392L13.7008 12.6886C13.0688 12.867 12.4602 13.1194 11.8874 13.4406L10.6058 12.8907C10.4222 12.8087 10.2193 12.78 10.0202 12.8077C9.82102 12.8354 9.63367 12.9185 9.47943 13.0475C9.2805 13.2112 9.0773 13.3968 8.83037 13.6384C8.59677 13.8774 8.41117 14.0806 8.25277 14.2731C8.12251 14.4277 8.03842 14.6158 8.01012 14.816C7.98182 15.0161 8.01046 15.2202 8.09277 15.4048L8.63997 16.6934C8.31878 17.2661 8.06637 17.8748 7.88797 18.5067L6.58983 19.0251C6.40464 19.0994 6.2432 19.2228 6.12283 19.382C6.00246 19.5412 5.92772 19.7301 5.90663 19.9286C5.89597 20.0384 5.88903 20.1542 5.88263 20.272H3.19997V3.20003Z" fill="#1b91ad"/>
<path d="M11.2 9.6C11.6243 9.6 12.0313 9.43143 12.3313 9.13137C12.6314 8.83131 12.8 8.42434 12.8 8C12.8 7.85855 12.7438 7.72289 12.6438 7.62287C12.5437 7.52285 12.4081 7.46666 12.2666 7.46666C12.1252 7.46666 11.9895 7.52285 11.8895 7.62287C11.7895 7.72289 11.7333 7.85855 11.7333 8C11.7333 8.14144 11.6771 8.2771 11.5771 8.37712C11.4771 8.47714 11.3414 8.53333 11.2 8.53333C11.0585 8.53333 10.9229 8.47714 10.8229 8.37712C10.7228 8.2771 10.6666 8.14144 10.6666 8V5.86666C10.6666 5.72521 10.7228 5.58956 10.8229 5.48954C10.9229 5.38952 11.0585 5.33333 11.2 5.33333C11.3414 5.33333 11.4771 5.38952 11.5771 5.48954C11.6771 5.58956 11.7333 5.72521 11.7333 5.86666C11.7333 6.00811 11.7895 6.14377 11.8895 6.24379C11.9895 6.34381 12.1252 6.4 12.2666 6.4C12.4081 6.4 12.5437 6.34381 12.6438 6.24379C12.7438 6.14377 12.8 6.00811 12.8 5.86666C12.8 5.44232 12.6314 5.03535 12.3313 4.73529C12.0313 4.43523 11.6243 4.26666 11.2 4.26666C10.7756 4.26666 10.3687 4.43523 10.0686 4.73529C9.76855 5.03535 9.59998 5.44232 9.59998 5.86666V8C9.59998 8.42434 9.76855 8.83131 10.0686 9.13137C10.3687 9.43143 10.7756 9.6 11.2 9.6Z" fill="#1b91ad"/>
<path d="M14.4 9.6C14.5415 9.6 14.6771 9.54381 14.7772 9.44379C14.8772 9.34377 14.9334 9.20811 14.9334 9.06666V5.86666L15.36 6.43573C15.4372 6.53108 15.5348 6.60797 15.6455 6.6608C15.7562 6.71362 15.8773 6.74103 16 6.74103C16.1227 6.74103 16.2438 6.71362 16.3546 6.6608C16.4653 6.60797 16.5628 6.53108 16.64 6.43573L17.0667 5.86666V9.06666C17.0667 9.20811 17.1229 9.34377 17.2229 9.44379C17.3229 9.54381 17.4586 9.6 17.6 9.6C17.7415 9.6 17.8771 9.54381 17.9772 9.44379C18.0772 9.34377 18.1334 9.20811 18.1334 9.06666V5.06666C18.1334 4.89876 18.0805 4.73511 17.9824 4.59889C17.8842 4.46268 17.7456 4.36081 17.5863 4.30772C17.4271 4.25462 17.2551 4.25299 17.0948 4.30305C16.9346 4.35312 16.7941 4.45234 16.6934 4.58666L16 5.512L15.3067 4.58666C15.206 4.45234 15.0655 4.35312 14.9052 4.30305C14.745 4.25299 14.573 4.25462 14.4137 4.30772C14.2544 4.36081 14.1159 4.46268 14.0177 4.59889C13.9195 4.73511 13.8667 4.89876 13.8667 5.06666V9.06666C13.8667 9.20811 13.9229 9.34377 14.0229 9.44379C14.1229 9.54381 14.2586 9.6 14.4 9.6Z" fill="#1b91ad"/>
<path d="M20.8 7.46666C20.8936 7.46675 20.9855 7.49148 21.0665 7.53834C21.1476 7.58521 21.2148 7.65257 21.2615 7.73367C21.3083 7.81476 21.3329 7.90672 21.3328 8.00032C21.3327 8.09392 21.3081 8.18585 21.2612 8.26689C21.2144 8.34792 21.147 8.4152 21.066 8.46197C20.9849 8.50874 20.8929 8.53335 20.7993 8.53333C20.7057 8.53331 20.6138 8.50865 20.5327 8.46184C20.4517 8.41503 20.3844 8.34772 20.3376 8.26666C20.2646 8.14874 20.1486 8.06387 20.0142 8.03004C19.8797 7.99621 19.7373 8.01609 19.6173 8.08545C19.4972 8.15481 19.4088 8.26821 19.371 8.4016C19.3331 8.53499 19.3487 8.67789 19.4144 8.8C19.5548 9.04323 19.7568 9.24521 20 9.38564C20.2433 9.52607 20.5192 9.6 20.8 9.6C21.0809 9.59999 21.3568 9.52606 21.6 9.38563C21.8433 9.2452 22.0453 9.04321 22.1857 8.79998C22.3261 8.55674 22.4 8.28083 22.4 7.99997C22.4 7.71911 22.3261 7.4432 22.1857 7.19997C22.0452 6.95674 21.8432 6.75476 21.6 6.61434C21.3568 6.47391 21.0809 6.39999 20.8 6.4C20.7064 6.3999 20.6145 6.37518 20.5335 6.32832C20.4524 6.28145 20.3852 6.21408 20.3384 6.13299C20.2917 6.0519 20.2671 5.95994 20.2672 5.86634C20.2672 5.77274 20.2919 5.68081 20.3388 5.59977C20.3856 5.51874 20.4529 5.45145 20.534 5.40469C20.6151 5.35792 20.707 5.33331 20.8006 5.33333C20.8942 5.33335 20.9862 5.35801 21.0672 5.40482C21.1483 5.45162 21.2156 5.51894 21.2624 5.6C21.3353 5.71792 21.4514 5.80279 21.5858 5.83662C21.7203 5.87045 21.8627 5.85057 21.9827 5.78121C22.1028 5.71185 22.1911 5.59845 22.229 5.46506C22.2669 5.33166 22.2513 5.18877 22.1856 5.06666C22.0452 4.82343 21.8432 4.62145 21.5999 4.48102C21.3567 4.34059 21.0808 4.26666 20.7999 4.26666C20.5191 4.26666 20.2432 4.3406 19.9999 4.48103C19.7567 4.62146 19.5547 4.82345 19.4143 5.06668C19.2739 5.30991 19.1999 5.58583 19.2 5.86669C19.2 6.14755 19.2739 6.42346 19.4143 6.66669C19.5548 6.90992 19.7567 7.1119 20 7.25232C20.2432 7.39275 20.5191 7.46667 20.8 7.46666V7.46666Z" fill="#1b91ad"/>
<path d="M7.46672 9.59999C7.60816 9.59999 7.74382 9.5438 7.84384 9.44378C7.94386 9.34376 8.00005 9.20811 8.00005 9.06666C8.00005 8.92521 7.94386 8.78955 7.84384 8.68953C7.74382 8.58952 7.60816 8.53333 7.46672 8.53333H5.33338C5.19193 8.53333 5.05628 8.58952 4.95626 8.68953C4.85624 8.78955 4.80005 8.92521 4.80005 9.06666C4.80005 9.20811 4.85624 9.34376 4.95626 9.44378C5.05628 9.5438 5.19193 9.59999 5.33338 9.59999H7.46672Z" fill="#1b91ad"/>
<path d="M24.5333 9.59999H26.6667C26.8081 9.59999 26.9438 9.5438 27.0438 9.44378C27.1438 9.34376 27.2 9.20811 27.2 9.06666C27.2 8.92521 27.1438 8.78955 27.0438 8.68953C26.9438 8.58952 26.8081 8.53333 26.6667 8.53333H24.5333C24.3919 8.53333 24.2562 8.58952 24.1562 8.68953C24.0562 8.78955 24 8.92521 24 9.06666C24 9.20811 24.0562 9.34376 24.1562 9.44378C24.2562 9.5438 24.3919 9.59999 24.5333 9.59999Z" fill="#1b91ad"/>
</g>
<defs>
<clipPath id="clip0_38_142">
<rect width="32" height="32" fill="white"/>
</clipPath>
</defs>
</svg>
