<svg width="32" height="32" viewBox="0 0 32 32" fill="none" xmlns="http://www.w3.org/2000/svg">
<path d="M16 4.5C9.93457 4.5 5 9.43457 5 15.5V15.5106C4.99998 17.5534 5.56881 19.5559 6.64277 21.2936C7.71672 23.0313 9.25336 24.4357 11.0805 25.3492L11.1708 25.3944C11.4205 25.5182 11.6306 25.7096 11.7772 25.9467C11.9238 26.1838 12.0009 26.4573 12 26.7361V29.5C12.0005 29.8977 12.1586 30.279 12.4398 30.5602C12.721 30.8414 13.1023 30.9995 13.5 31H19C19.3977 30.9995 19.779 30.8414 20.0602 30.5602C20.3414 30.279 20.4995 29.8977 20.5 29.5V26.6176C20.5009 26.3616 20.5669 26.1101 20.6918 25.8866C20.8166 25.6631 20.9963 25.4751 21.2138 25.3401L21.7651 25.0009C22.0765 24.8092 22.3799 24.5995 22.6707 24.3778L22.8964 24.6036C23.1891 24.8963 23.5861 25.0607 24 25.0607C24.4139 25.0607 24.8109 24.8963 25.1036 24.6036C25.3963 24.3109 25.5607 23.9139 25.5607 23.5C25.5607 23.0861 25.3963 22.6891 25.1036 22.3964L24.8594 22.1522C26.2457 20.2607 26.9953 17.9777 27 15.6326V15.5C27 9.43457 22.0654 4.5 16 4.5V4.5ZM19.5 29.5C19.4998 29.6326 19.4471 29.7597 19.3534 29.8534C19.2597 29.9471 19.1326 29.9998 19 30H13.5C13.3674 29.9998 13.2403 29.9471 13.1466 29.8534C13.0529 29.7597 13.0002 29.6326 13 29.5V28.5H19.5V29.5ZM19.5 26.6176V27.5H13V26.7361C12.9999 26.4866 12.9627 26.2385 12.8896 26H19.5792C19.5269 26.2017 19.5003 26.4092 19.5 26.6176V26.6176ZM24.3964 23.8964C24.2912 24.0014 24.1486 24.0604 24 24.0604C23.8514 24.0604 23.7088 24.0014 23.6036 23.8964L18.6155 18.9084C18.9207 18.6897 19.1976 18.4339 19.4398 18.1469L24.3964 23.1036C24.5014 23.2088 24.5604 23.3514 24.5604 23.5C24.5604 23.6486 24.5014 23.7912 24.3964 23.8964V23.8964ZM11.0924 18.217L9.38159 18.6957L9.0155 17.9074L10.5002 16.9528L10.2434 14.788L8.5722 14.1815L8.7431 13.3388L10.5186 13.4318L11.5988 11.5384L10.6033 10.0803L11.2477 9.49719L12.6367 10.605L14.6331 9.70917L14.6909 7.97076L15.5695 7.87372L16.034 9.55872L18.1832 9.99494L19.2676 8.62427L20.0389 9.05621L19.4146 10.6797L20.9041 12.283L22.6149 11.8043L22.981 12.5926L21.4962 13.5472L21.7529 15.712L23.4243 16.3186L23.2534 17.1612L21.478 17.0682L20.8594 18.1523L20.005 17.2978C20.4856 16.3576 20.6203 15.2782 20.3855 14.2487C20.1506 13.2191 19.5612 12.3049 18.7204 11.666C17.8796 11.0272 16.8409 10.7043 15.7861 10.754C14.7313 10.8036 13.7275 11.2226 12.9504 11.9376C12.1733 12.6526 11.6723 13.6181 11.5352 14.6652C11.3981 15.7122 11.6336 16.7742 12.2004 17.6651C12.7672 18.5561 13.6293 19.2194 14.6357 19.539C15.6422 19.8585 16.729 19.814 17.706 19.4132L18.5508 20.258L17.3633 20.7908L17.3057 22.5292L16.427 22.6263L15.9625 20.9413L13.8133 20.5052L12.7288 21.8757L11.9575 21.4438L12.5818 19.8203L11.0924 18.217ZM16 18.75C15.3078 18.75 14.6311 18.5447 14.0555 18.1601C13.4799 17.7756 13.0313 17.2289 12.7664 16.5894C12.5015 15.9499 12.4322 15.2461 12.5673 14.5672C12.7023 13.8882 13.0356 13.2646 13.5251 12.7751C14.0146 12.2856 14.6382 11.9523 15.3172 11.8173C15.9961 11.6822 16.6999 11.7515 17.3394 12.0164C17.9789 12.2813 18.5256 12.7299 18.9101 13.3055C19.2947 13.8811 19.5 14.5578 19.5 15.25C19.499 16.1779 19.1299 17.0676 18.4737 17.7237C17.8176 18.3799 16.9279 18.749 16 18.75V18.75ZM26 15.6326C25.9957 17.7125 25.347 19.7399 24.1431 21.436L21.5925 18.8853L22.0411 18.0991L24.062 18.2049L24.5757 15.6726L22.6734 14.9822L22.5629 14.0503L24.2551 12.9622L23.1639 10.6122L21.2217 11.1557L20.572 10.4563L21.2832 8.60688L19.0124 7.33521L17.7801 8.8927L16.8348 8.70081L16.3069 6.78619L13.7202 7.07196L13.6544 9.05231L12.7835 9.44306L11.2068 8.18542L9.28583 9.92395L10.4204 11.5859L9.95538 12.4009L7.93451 12.2951L7.42071 14.8273L9.323 15.5178L9.4336 16.4497L7.74121 17.5378L8.83258 19.8878L10.7748 19.3443L11.4245 20.0437L10.7133 21.8931L12.9841 23.1648L14.2164 21.6074L15.1617 21.7992L15.6896 23.7138L18.2764 23.428L18.3421 21.4477L19.3074 21.0146L21.9573 23.6645C21.7259 23.836 21.4859 23.9985 21.241 24.1492L20.6897 24.4884C20.4661 24.6264 20.2658 24.7991 20.0965 25H12.3005C12.1029 24.796 11.8722 24.627 11.6182 24.5001L11.5278 24.4549C9.86677 23.6244 8.4698 22.3477 7.49346 20.7679C6.51712 19.1882 5.99999 17.3677 6 15.5106V15.5C6 9.98596 10.486 5.5 16 5.5C21.514 5.5 26 9.98596 26 15.5V15.6326Z" fill="#1b91ad"/>
<path d="M28 14H31V15H28V14Z" fill="#1b91ad"/>
<path d="M15.5 1H16.5V3.5H15.5V1Z" fill="#1b91ad"/>
<path d="M21.6438 4.64832L23.6435 2.64861L24.3505 3.35565L22.3508 5.35536L21.6438 4.64832Z" fill="#1b91ad"/>
<path d="M26.1927 8.60101L28.6932 6.60004L29.3182 7.38104L26.8177 9.38201L26.1927 8.60101Z" fill="#1b91ad"/>
<path d="M27.2192 20.4331L27.7333 19.5761L30.2319 21.0746L29.7178 21.9317L27.2192 20.4331Z" fill="#1b91ad"/>
<path d="M1 14H4V15H1V14Z" fill="#1b91ad"/>
<path d="M7.64526 3.35425L8.35231 2.6472L10.352 4.64691L9.64497 5.35395L7.64526 3.35425Z" fill="#1b91ad"/>
<path d="M2.6897 7.39191L3.3147 6.61091L5.81512 8.61188L5.19012 9.39288L2.6897 7.39191Z" fill="#1b91ad"/>
<path d="M1.75208 21.0604L4.25066 19.5589L4.76569 20.4159L2.26711 21.9174L1.75208 21.0604Z" fill="#1b91ad"/>
</svg>
