<svg width="32" height="32" viewBox="0 0 32 32" fill="none" xmlns="http://www.w3.org/2000/svg">
<g clip-path="url(#clip0_38_119)">
<path d="M18.0026 14.5467C18.0026 13.4338 17.0999 12.5283 15.9903 12.5283C14.8807 12.5283 13.978 13.4338 13.978 14.5467C13.978 15.4827 14.6166 16.2718 15.4796 16.4992L15.4898 18.6379C15.4911 18.9202 15.7205 19.141 16.0025 19.141H16.005C16.2882 19.141 16.5167 18.9191 16.5154 18.6359L16.5052 16.4979C17.3662 16.2692 18.0026 15.4812 18.0026 14.5467ZM15.9904 15.5395C15.4464 15.5395 15.0037 15.0942 15.0037 14.5467C15.0037 13.9993 15.4463 13.554 15.9904 13.554C16.5344 13.554 16.977 13.9993 16.977 14.5467C16.977 15.0942 16.5344 15.5395 15.9904 15.5395Z" fill="#1b91ad"/>
<path d="M29.0751 13.9491C28.1914 13.9491 27.4455 14.5256 27.2202 15.359H23.7684C23.9709 14.3974 24.1181 13.4359 24.2326 12.4103H26.7372C27.0205 12.4103 27.218 12.2006 27.218 11.9174V7.01994C28.0513 6.79603 28.6489 6.05007 28.6489 5.16628C28.6489 4.10609 27.7935 3.24359 26.732 3.24359C25.6706 3.24359 24.7951 4.10609 24.7951 5.16628C24.7951 6.04808 25.4231 6.79263 26.1923 7.0184V11.3846H24.3387C24.4132 10.6154 24.4726 9.78686 24.5278 8.97013C24.5499 8.64276 24.255 8.39321 23.9373 8.44257C23.3283 8.55904 22.7126 8.6468 22.0913 8.6468C20.0279 8.64667 18.1319 7.71103 16.3258 5.81494C16.069 5.59616 15.8164 5.60084 15.5681 5.82898C13.6502 8.07904 10.9888 9.01442 8.06308 8.44237C7.74423 8.38 7.43083 8.64269 7.45301 8.97026C7.50923 9.79994 7.5684 10.6154 7.64064 11.3846H5.9359V7.0184C6.70513 6.79263 7.33981 6.04814 7.33981 5.16628C7.33981 4.10609 6.47359 3.24359 5.41218 3.24359C4.35077 3.24359 3.49128 4.10609 3.49128 5.16628C3.49128 6.05013 4.07692 6.79603 4.91026 7.01994V11.9173C4.91026 12.2005 5.12897 12.4102 5.41218 12.4102H7.74436C7.85769 13.4358 8.00224 14.3974 8.20167 15.3589H4.77987C4.55455 14.5256 3.80865 13.949 2.925 13.949C1.86353 13.9491 1 14.8117 1 15.8719C1 16.932 1.86353 17.7945 2.92494 17.7945C3.80859 17.7945 4.55449 17.218 4.77981 16.3846H8.44622C8.72083 17.4125 9.10904 18.3659 9.54154 19.3333H5.41218C5.12897 19.3333 4.91026 19.5431 4.91026 19.8263V24.9808C4.07692 25.2056 3.49276 25.9509 3.49276 26.8337C3.49276 27.8939 4.35353 28.7564 5.41494 28.7564C6.47641 28.7564 7.34397 27.8939 7.34397 26.8337C7.34397 25.9509 6.76923 25.2056 5.9359 24.9808V20.359H10.1286C11.4419 22.4103 13.3194 23.855 15.8184 24.7869C15.939 24.8231 16.0599 24.8234 16.1808 24.7878C18.6566 23.8406 20.5209 22.3462 21.83 20.359H26.1923V24.9808C25.4231 25.2056 24.7962 25.9509 24.7962 26.8337C24.7962 27.8939 25.6678 28.7564 26.7292 28.7564C27.7907 28.7564 28.6421 27.8939 28.6421 26.8337C28.6421 25.9509 28.0513 25.2056 27.218 24.9808V19.8263C27.218 19.5431 27.0205 19.3334 26.7372 19.3334H22.4204C22.8613 18.3688 23.2485 17.4113 23.5225 16.3847H27.2201C27.4455 17.218 28.1913 17.7946 29.075 17.7946C30.1365 17.7945 31 16.932 31 15.8718C31 14.8116 30.1365 13.9491 29.0751 13.9491V13.9491ZM25.8408 5.16628C25.8408 4.6716 26.2442 4.26923 26.74 4.26923C27.2358 4.26923 27.6393 4.6716 27.6393 5.16628C27.6393 5.66096 27.2358 6.06333 26.74 6.06333C26.2442 6.06333 25.8408 5.66096 25.8408 5.16628ZM4.51013 5.16628C4.51013 4.6716 4.91359 4.26923 5.40942 4.26923C5.90526 4.26923 6.30872 4.6716 6.30872 5.16628C6.30872 5.66096 5.90526 6.06333 5.40942 6.06333C4.91359 6.06333 4.51013 5.66096 4.51013 5.16628ZM2.92494 16.7688C2.4291 16.7688 2.02564 16.3665 2.02564 15.8719C2.02564 15.3772 2.4291 14.9748 2.92494 14.9748C3.42077 14.9748 3.82423 15.3772 3.82423 15.8719C3.82429 16.3665 3.42083 16.7688 2.92494 16.7688V16.7688ZM6.31147 26.8337C6.31147 27.3284 5.90801 27.7308 5.41218 27.7308C4.91635 27.7308 4.51295 27.3284 4.51295 26.8337C4.51295 26.339 4.91635 25.9367 5.41218 25.9367C5.90801 25.9367 6.31147 26.339 6.31147 26.8337ZM27.6365 26.8337C27.6365 27.3284 27.2331 27.7308 26.7372 27.7308C26.2414 27.7308 25.8379 27.3284 25.8379 26.8337C25.8379 26.339 26.2414 25.9367 26.7372 25.9367C27.2331 25.9367 27.6365 26.339 27.6365 26.8337ZM8.52154 9.555C11.2885 9.9116 14.1156 9.04962 15.9782 6.91789C17.994 8.87237 20.623 10.0242 23.4597 9.55109C22.9803 16.1414 21.9924 21.3572 15.9953 23.7468C9.99455 21.4135 9.0043 16.179 8.52154 9.555V9.555ZM29.0751 16.7688C28.5792 16.7688 28.1758 16.3665 28.1758 15.8719C28.1758 15.3772 28.5792 14.9748 29.0751 14.9748C29.5709 14.9748 29.9744 15.3772 29.9744 15.8719C29.9744 16.3665 29.5709 16.7688 29.0751 16.7688Z" fill="#1b91ad"/>
</g>
<defs>
<clipPath id="clip0_38_119">
<rect width="30" height="30" fill="white" transform="translate(1 1)"/>
</clipPath>
</defs>
</svg>
